TTLocalizer: Running in language: English
OTPLocalizer: Running in language: English
Preloading suits...
Preloading Toon heads...
Preloading avatars...
{401000001: <toontown.distributed.ToontownDistrict.ToontownDistrict instance at 0x202AA9B8>}
__handleAvatarChooserDone: 100000015, 'Gabegamer', ('dss', 'ms', 'm', 'm', (0.19, 0.56, 0.77, 1.0), (1.0, 1.0, 1.0, 1.0), (0.19, 0.56, 0.77, 1.0), (0.19, 0.56, 0.77, 1.0), 3, 8, 3, 8, 13, 27), 0
Traceback (most recent call last):
  File "C:\Panda3D-1.10.0\direct\distributed\ConnectionRepository.py", line 613, in readerPollUntilEmpty
    while self.readerPollOnce():
  File "C:\Panda3D-1.10.0\direct\distributed\ConnectionRepository.py", line 620, in readerPollOnce
    self.handleDatagram(self.private__di)
  File "otp\distributed\OTPClientRepository.py", line 1222, in handleDatagram
    self.handleMessageType(msgType, di)
  File "otp\distributed\OTPClientRepository.py", line 1156, in handleMessageType
    self.handleGenerateWithRequiredOtherOwner(di)
  File "toontown\distributed\ToontownClientRepository.py", line 754, in handleGenerateWithRequiredOtherOwner
    self.handleAvatarResponseMsg(doId, di)
  File "toontown\distributed\ToontownClientRepository.py", line 314, in handleAvatarResponseMsg
    localAvatar.initInterface()
  File "toontown\toon\LocalToon.py", line 331, in initInterface
    self.loadDisguisePages()
  File "toontown\toon\LocalToon.py", line 388, in loadDisguisePages
    self.disguisePage.load()
  File "toontown\shtiker\DisguisePage.py", line 89, in load
    self.updatePage()
  File "toontown\shtiker\DisguisePage.py", line 104, in updatePage
    self.doTab(self.activeTab)
  File "toontown\shtiker\DisguisePage.py", line 178, in doTab
    cog = SuitDNA.suitHeadTypes[cogIndex]
IndexError: list index out of range
Traceback (most recent call last):
  File "otp\otpbase\OTPBase.py", line 34, in run
    taskMgr.run()
  File "C:\Panda3D-1.10.0\direct\task\Task.py", line 508, in run
    self.step()
  File "C:\Panda3D-1.10.0\direct\task\Task.py", line 465, in step
    self.mgr.poll()
  File "C:\Panda3D-1.10.0\direct\distributed\ConnectionRepository.py", line 613, in readerPollUntilEmpty
    while self.readerPollOnce():
  File "C:\Panda3D-1.10.0\direct\distributed\ConnectionRepository.py", line 620, in readerPollOnce
    self.handleDatagram(self.private__di)
  File "otp\distributed\OTPClientRepository.py", line 1222, in handleDatagram
    self.handleMessageType(msgType, di)
  File "otp\distributed\OTPClientRepository.py", line 1156, in handleMessageType
    self.handleGenerateWithRequiredOtherOwner(di)
  File "toontown\distributed\ToontownClientRepository.py", line 754, in handleGenerateWithRequiredOtherOwner
    self.handleAvatarResponseMsg(doId, di)
  File "toontown\distributed\ToontownClientRepository.py", line 314, in handleAvatarResponseMsg
    localAvatar.initInterface()
  File "toontown\toon\LocalToon.py", line 331, in initInterface
    self.loadDisguisePages()
  File "toontown\toon\LocalToon.py", line 388, in loadDisguisePages
    self.disguisePage.load()
  File "toontown\shtiker\DisguisePage.py", line 89, in load
    self.updatePage()
  File "toontown\shtiker\DisguisePage.py", line 104, in updatePage
    self.doTab(self.activeTab)
  File "toontown\shtiker\DisguisePage.py", line 178, in doTab
    cog = SuitDNA.suitHeadTypes[cogIndex]
IndexError: list index out of range
